team
…
Change the Height column in biogrpahy into numeric.

bioClean<-biography %>% separate(Height, into = c("feet", "inch"))
bioClean <- bioClean %>%
  mutate(feet = as.numeric(feet),
         inch = as.numeric(inch))
bioClean$Height <- bioClean$feet+bioClean$inch/12
bioClean

## # A tibble: 105 x 9
##    Name      Position   feet  inch Weight Class    Hometown    Highschool Height
##    <chr>     <chr>     <dbl> <dbl> <chr>  <chr>    <chr>       <chr>       <dbl>
##  1 Akers, L Wide Rec     6     0 188    Redshir Cedar Rapi Washington   6   
##  2 Allen, C Tight End     6     7 245    Redshir Nixa, Mo.   Nixa         6.58
##  3 Anderson Wide Rec     6     5 204    Redshir Seffner, F Armwood      6.42
##  4 Assalley Placekic     6     0 195    Redshir Naperville Central      6   
##  5 Azunna,  Defensiv     6     0 190    Redshir Grand Prai Lake Ridge   6   
##  6 Bailey,  Defensiv     6     3 235    Redshir Clarksdale Clarksdale   6.25
##  7 Bailey,  Defensiv     6     2 255    Redshir Jacksonvil Raines       6.17
##  8 Bailey,  Defensiv     6     2 285    Redshir Jacksonvil Raines       6.17
##  9 Bankston Defensiv     6     0 300    Junior   Woodstock, Woodstock    6   
## 10 Bouman,  Quarterb     6     6 215    Freshman Buffalo, M Buffalo      6.5 
## #  with 95 more rows

By cleaning the three data frames in R, at the end of this step you should have the following three clean data frames: defClean, offClean, and bioClean. Print the structures of these data frames.

defClean

## # A tibble: 502 x 11
##    Name  Opponent_Oppone Tackles_Solo Tackles_ASST Tackles_TFL Tackles_Sack
##    <fct> <fct>                   <dbl>        <dbl>       <dbl>        <dbl>
##  1 Whit UNI                         4            4           0            0
##  2 Whit Iowa                        4            7           0            0
##  3 Whit ULM                         3            5           0            0
##  4 Whit Baylor                      4            2           0            0
##  5 Whit TCU                         3            2           1            0
##  6 Whit West Virginia               1            1           0            0
##  7 Whit Texas Tech                  7            1           0            0
##  8 Whit Oklahoma State              3            2           0            0
##  9 Whit Oklahoma                    6            1           1            0
## 10 Whit Texas                       5            5           1            1
## #  with 492 more rows, and 5 more variables: Turnover_FF <dbl>,
## #   Turnover_FR <dbl>, Turnover_INT <dbl>, Pass_QBH <dbl>, Pass_PB <dbl>

offClean

## # A tibble: 195 x 12
##    Name  Opponent_Oppone Rushing_ATT Rushing_YDS Rushing_TD Receiving_REC
##    <fct> <fct>                  <dbl>       <dbl>      <dbl>         <dbl>
##  1 Aker UNI                        0           0          0             1
##  2 Aker Iowa                       0           0          0             0
##  3 Aker ULM                        1           8          0             0
##  4 Aker Baylor                     0           0          0             0
##  5 Aker TCU                        0           0          0             1
##  6 Aker West Virginia              0           0          0             0
##  7 Aker Texas Tech                 0           0          0             0
##  8 Aker Oklahoma State             0           0          0             4
##  9 Aker Oklahoma                   0           0          0             0
## 10 Aker Texas                      0           0          0             1
## #  with 185 more rows, and 6 more variables: Receiving_YDS <dbl>,
## #   Receiving_TD <dbl>, Passing_CMP_ATT <dbl>, Passing_YDS <dbl>,
## #   Passing_TD <dbl>, Passing_INT <dbl>

bioClean

## # A tibble: 105 x 9
##    Name      Position   feet  inch Weight Class    Hometown    Highschool Height
##    <chr>     <chr>     <dbl> <dbl> <chr>  <chr>    <chr>       <chr>       <dbl>
##  1 Akers, L Wide Rec     6     0 188    Redshir Cedar Rapi Washington   6   
##  2 Allen, C Tight End     6     7 245    Redshir Nixa, Mo.   Nixa         6.58
##  3 Anderson Wide Rec     6     5 204    Redshir Seffner, F Armwood      6.42
##  4 Assalley Placekic     6     0 195    Redshir Naperville Central      6   
##  5 Azunna,  Defensiv     6     0 190    Redshir Grand Prai Lake Ridge   6   
##  6 Bailey,  Defensiv     6     3 235    Redshir Clarksdale Clarksdale   6.25
##  7 Bailey,  Defensiv     6     2 255    Redshir Jacksonvil Raines       6.17
##  8 Bailey,  Defensiv     6     2 285    Redshir Jacksonvil Raines       6.17
##  9 Bankston Defensiv     6     0 300    Junior   Woodstock, Woodstock    6   
## 10 Bouman,  Quarterb     6     6 215    Freshman Buffalo, M Buffalo      6.5 
## #  with 95 more rows
…
Part three: Joining data frames

Find where do the offensive players come from by joining the offensive data and player biography data appropriately.

left<- left_join(offClean, bioClean, by = "Name")

## Warning: Column `Name` joining factor and character vector, coercing into
## character vector

left

## # A tibble: 195 x 20
##    Name  Opponent_Oppone Rushing_ATT Rushing_YDS Rushing_TD Receiving_REC
##    <chr> <fct>                  <dbl>       <dbl>      <dbl>         <dbl>
##  1 Aker UNI                        0           0          0             1
##  2 Aker Iowa                       0           0          0             0
##  3 Aker ULM                        1           8          0             0
##  4 Aker Baylor                     0           0          0             0
##  5 Aker TCU                        0           0          0             1
##  6 Aker West Virginia              0           0          0             0
##  7 Aker Texas Tech                 0           0          0             0
##  8 Aker Oklahoma State             0           0          0             4
##  9 Aker Oklahoma                   0           0          0             0
## 10 Aker Texas                      0           0          0             1
## #  with 185 more rows, and 14 more variables: Receiving_YDS <dbl>,
## #   Receiving_TD <dbl>, Passing_CMP_ATT <dbl>, Passing_YDS <dbl>,
## #   Passing_TD <dbl>, Passing_INT <dbl>, Position <chr>, feet <dbl>,
## #   inch <dbl>, Weight <chr>, Class <chr>, Hometown <chr>, Highschool <chr>,
## #   Height <dbl>
…
The histogram does not show obvious relationship between weight and Receiving_YDS. However, But in weight 183, its more evenly distributed in Receiving_YDS.

inner<- inner_join(offClean, bioClean, by = "Name")

## Warning: Column `Name` joining factor and character vector, coercing into
## character vector

inner

## # A tibble: 152 x 20
##    Name  Opponent_Oppone Rushing_ATT Rushing_YDS Rushing_TD Receiving_REC
##    <chr> <fct>                  <dbl>       <dbl>      <dbl>         <dbl>
##  1 Aker UNI                        0           0          0             1
##  2 Aker Iowa                       0           0          0             0
##  3 Aker ULM                        1           8          0             0
##  4 Aker Baylor                     0           0          0             0
##  5 Aker TCU                        0           0          0             1
##  6 Aker West Virginia              0           0          0             0
##  7 Aker Texas Tech                 0           0          0             0
##  8 Aker Oklahoma State             0           0          0             4
##  9 Aker Oklahoma                   0           0          0             0
## 10 Aker Texas                      0           0          0             1
## #  with 142 more rows, and 14 more variables: Receiving_YDS <dbl>,
## #   Receiving_TD <dbl>, Passing_CMP_ATT <dbl>, Passing_YDS <dbl>,
## #   Passing_TD <dbl>, Passing_INT <dbl>, Position <chr>, feet <dbl>,
## #   inch <dbl>, Weight <chr>, Class <chr>, Hometown <chr>, Highschool <chr>,
## #   Height <dbl>
…
